VAFIN	1	2	3	4	5	6	ADJD	startpos	endpos	Sentence
bist	0	0	0	0	0	so	cool	29	36	 None | @daggibee466 du bist so cool ich mag deine Videos voll :*
sind	0	0	0	0	0	so	ugh	43	49	 None | RT @MeetMeInTheNowh: Menschen sind so ugh.
ist	0	0	0	0	0	sau	gruselig	16	28	 None | Der ist sau gruselig.  Als wenn es nicht reicht, dass mein Ex neben mir wohnt und jeden Tag guckt, ob ich ausgehe oder Besuch hab.
bist	0	0	0	halt	sehr	sehr	niedlich	44	67	 526162073622151168 | @OmmaElfriede Du bist halt sehr sehr niedlich, wenn du fangirlst. &lt;3
war	0	0	0	0	0	sehr	schön	36	134	 None | JRK Nachtwanderung 2014 war sehr schön,  auch wenn das Wetter nicht so richtig mitgespielt hat. Strecke lang, aber viele schöne Stationen...
war	0	0	0	0	auch	voll	süß	16	29	 None | Ich war auch voll süß. Nur die komische Frisur die mir meine Mutter dauern verpasst jat war nicht okay.
war	0	0	0	0	0	zu	schlecht	65	76	 526162771814395904 | @Paski2 @FailitGames @CursedVortex der war zu schlecht...
bin	0	0	0	0	0	so	fertig	47	56	 526161795418161153 | @visualbaellchen ich bin so fertig, einfach aufgebracht und ich denke zu viel nach, um zu schlafen aber ich werds versuchen oh man
ist	0	0	0	0	0	so	weit	15	22	 None | Es ist so weit! Die Zeitumstellung auf die Winterzeit :-)
bist	0	0	0	0	0	so	cool	73	80	 526162645448425474 | @daggibee466 ich mag seine Videos voll und du bist so cool &lt;3
war	0	0	0	lange	noch	nicht	fertig	31	54	 None | bumspaar2: Der Typ war lange noch nicht fertig mit mir.Er meinte,eine Frau wie mich müsste man auskosten.Liegt… http://t.co/OrCU3CEK5N
war	0	0	0	0	schon	ganz	nett	74	89	 526162890664198144 | @_TwistedLies Ich habe eben den Anfang geguckt, war schon ganz nett, aber halt nicht Köln. 💁😂
bin	0	0	0	0	0	so	aufgeregt	23	58	 None | Halloween wird so episch, omg ich bin so aufgeregt😂😂
ist	0	0	0	0	0	völlig	absurd	54	67	 526162061370597376 | @erdbeerfrosch13 Nihilismus ist völlig absurd.. Bringt ja nix ;-) @_schwarzeKatze
ist	0	0	0	0	0	wirklich	interessant	48	68	 None | Autoverwertung Klaus Neumann... das ist wirklich interessant wollen. Sie mehr wissen Schauen? Look at http://t.co/v10ONb6LJA #NEUMANN
ist	0	0	0	ja	garnicht	so	schlimm	38	60	 None | Guck gerade zombieland... ist ja garnicht so schlimm  😧😴
bist	0	0	0	0	0	so	cool	69	76	 526163042577711104 | @daggibee466 ich mag deine Videos voll du bist so cool :*
ist	0	0	0	0	0	so	krass	41	49	 526163383624953856 | @MinerHase Das ist so krass. Ich hoffe, ich komme niemals auf -7, srsly. :D
war	0	0	0	0	0	echt	toll	51	60	 None | RT @MikeGedizzle: Das wars wohl Leute, war echt toll bis zu einem bestimmten Zeitpunkt mit euch  ;-) #dagibtswohlkeinnächstesMal
ist	0	0	0	0	0	so	schön	27	35	 None | Charlie Hunnam ist so schön.
war	0	0	0	0	grad	so	emotional	20	41	 None | und das war grad sososo emotional und traurig und ich musste weinen. ich geh jetzt schlafen. Gute Nacht.
war	0	0	0	0	0	voll	süß	42	50	 526163605335859200 | @Niallerxrp Der war voll süß nh 😏
war	0	0	0	0	0	so	heiß	37	44	 None | Geile_Videos: die blonde war so heiß auf me3in sperma das sie mir gleich an meinen geilen schwanz ging und das… http://t.co/3hOrAfNt5Q
bin	0	0	0	0	0	so	tot	16	22	 None | ich bin so tot.
ist	0	0	0	0	immer	so	umständlich	30	50	 None | Uhr zurück drehen ist immer so umständlich,  wenn man die Stunden aufsteigend einstellen kann.
ist	0	0	0	0	0	so	geil	52	59	 526040301862146050 | @LifeWithMelina Das Video ist so geil 😂😂 haha
bin	0	0	0	0	0	so	müde	16	23	 None | Ich bin so müde.. Gute nacht schlaf gut!
ist	0	0	0	0	0	so	einfältig	41	53	 None | RT @ChaskaBorek Das Publikum ist so einfältig, lieber das Neue als das Gute zu lesen. Deutsch Schopenhauer Zitate über die Liebe Deutschland
ist	0	0	0	0	0	so	scheiße	16	26	 None | das ist so scheiße von ner laufenden serie alle folgen gesehen zu haben und jede woche auf die neue zu warten
sind	0	0	0	0	0	so	schrecklich	41	55	 None | Meine Stimmungsschwankungen sind so schrecklich, boah fuck
ist	0	0	0	0	0	voll	verwirrt	47	60	 526163424196448256 | @arborl Autorespondi ist voll verwirrt, weil er durch meine Uhrumstellung ne Std. gewonnen hat und gar nicht weiß wo die herkommt *schmatz*
sind	0	0	0	0	0	so	schrecklich	58	72	 None | RT @suchtmittel: Meine Stimmungsschwankungen sind so schrecklich, boah fuck
sind	0	0	0	0	0	echt	super	28	38	 None | Die Kommentare sind echt super. Ist schon schwer, Satire in den Sendungen von @janboehm zu erkennen... http://t.co/H5Ue67MBNa
bin	0	0	0	0	0	zu	alt	55	61	 526164781162852352 | @SamDerKoch @deandypfalz ich bin zu alt für wild...
sind	0	0	0	0	0	echt	super	28	38	 None | Die Kommentare sind echt super. Ist schon schwer, Satire in den Sendungen von @janboehm zu erkennen... http://t.co/H5Ue67MBNa #neomagazin
sind	0	0	0	0	0	voll	böse	41	50	 None | RT @DennisTucker69: Piraten sind voll böse und Piraten trinken Rum Piraten wollen feiern und sie schießen mit Kanon'!
sind	0	0	0	0	0	so	schlimm	32	42	 None | Alptraum Wortwitze sind so schlimm.
war	0	0	0	mal	wieder	mega	geil	40	106	 None | destroyedsx: mein popöchen hats mal wieder heftig gebraucht ...grrr un es war mal wieder mega geil..wie ich mein… http://t.co/rPWx6XmWrg
Sei	0	0	0	0	0	ganz	hart	12	57	 None | Sei ganz hart zu mir Ich gehöre dir Sei ganz hart zu mir Ich gehöre dir
ist	0	0	0	0	0	so	schön	15	23	 None | Es ist so schön, aufzuwachen und etwas von dir zu lesen..,  ...wenn du mir nur geschrieben hättest,
war	0	0	0	0	0	viel	einfacher	41	55	 None | RT @LearnXDGerman: Das Leben war viel einfacher, als Apple und Blackberry noch Früchte waren o_O
ist	0	0	0	0	derzeit	nicht	verfügbar	27	50	" None | ""Diese Präsenz ist derzeit nicht verfügbar."""
sind	0	0	0	gar	nicht	so	ernst	55	73	 None | RT @ucation: Die Highlights der Klassiker sind gar nicht so ernst, wie man denkt. Der Saal steht &amp; tanzt wild zum Can Can #familienkonzert …
war	0	0	0	0	0	so	geil	37	44	 None | Ich lag auf dem Bett und war so geil der Dildo reichte mir einfach nicht...ich wollte auch Sperma in meinem Mund… http://t.co/g0HFNyo3BA
bist	0	0	0	0	ja	ganz	rot	16	27	 None | Du bist ja ganz rot geworden Würde Ich am liebsten sagen.
ist	0	0	0	auch	mal	ganz	schön	44	63	 526164067120320512 | @Sophias_Mind das ist auch mal ganz schön!
ist	0	0	0	0	0	so	geil	43	51	 None | Die Startmelodie von der folge ist soo geil &lt;3 #TWDbeiRTL2
sei	0	0	0	0	nicht	so	neugierig	37	55	 526165734398107648 | @Shadowelf sei nicht so neugierig!
sind	0	0	0	0	0	57367mal	freundlicher	71	92	 None | Ich will wieder zurück in die USA 😪❤️🇺🇸 Die Menschen dort sind 57367mal freundlicher und offener als in Deutschland 🙏
ist	0	0	0	0	0	so	wunderschön	26	40	 None | jfc, die frau ist so wunderschön. &lt;3 http://t.co/mOAxfAJBII
bin	0	0	0	0	0	mega	stolz	50	60	 None | Gute Nacht :) ♡  Hab dich lieb Kathi, bin mega stolz auf dich ♡ @tyraphine
war	0	0	0	0	0	so	geil	37	44	 None | Ich lag auf dem Bett und war so geil der Dildo reichte mir einfach nicht...ich wollte auch Sperma in meinem Mund… http://t.co/GMcMEtFXk6
Bin	0	0	0	jetzt	schon	so	weit	12	30	" None | Bin jetzt scho so weit, dass ich weiß, das der Shipping Name von Kedos und Zombey ""Zombzone"" ist."
bist	0	0	0	0	schon	etwas	schwer	57	75	 526164034195046400 | @evelyn_nopfs @Volker_Beck Du bist schon etwas schwer von Begriff. Du hast keine Ahnung von den Begrifflichkeiten. http://t.co/WkoreFqrsV
bin	0	0	0	0	0	sehr	zufrieden	82	96	 None | Ich verwende Avast Free Antivirus, um meinen Computer zu schützen und bin sehr zufrieden. Testen Sie es auch! http://t.co/QaxW8MaEeT #avast
wäre	0	0	0	0	schon	ziemlich	awesome	58	80	 526163680443269120 | @lilalalaaaa @TheKedosZone Das wäre schon ziemlich awesome.. #KedosnichtmehrLive
ist	0	0	0	0	0	wirklich	gut	67	79	 None | RT @ContractSlayer: #reha #Schlaganfall2014  Das Essen ist wirklich gut und abwechslungsreich. http://t.co/HU8d1jznnq
ist	0	0	0	ja	schon	echt	cool	43	61	 None | RT @Directioner_976: Der Pulli ist ja schon echt cool. @Ardymon http://t.co/pPrV04QuWJ
bist	0	0	0	0	0	so	voll	44	51	 526165473072001025 | @schweinegurl Du bist so voll das kjute Menschlein, naw. ich für dich auch, wenn du wen brauchst.
war	0	0	0	0	0	so	flach	51	59	 526166342207283201 | @AkiAhnungslos Sorry der war so flach
ist	0	0	0	0	0	so	spät	15	22	 None | Es ist so spät, dass Porno-Hotline-Werbung läuft!
war	0	0	0	0	0	ziemlich	flach	22	36	 None | Okay, der war ziemlich flach und geklaut. #LT
waren	0	0	0	0	0	zu	hektisch	127	138	" None | RT @BILD_Schalke04: #Heldt: ""Wir haben die 2. Bälle nicht gewonnen, hatten so keine Offensivaktionen nach vorne, waren zu hektisch."" #B04S04"
bin	0	0	0	aber	auch	so	einfach	65	85	 None | @samislimani #CallMeSami ♡ bitte sami ruf mich an ^^ bin aber auch so einfach nur froh zu dieser wundervollen Saminator family zu gehören♡
sind	0	0	0	0	meist	genauso	interessant	33	58	 None | Lastminute Angebote sind meist genauso interessant wie Frühbucherrabatte - einfach vergleichen und sparen http://t.co/YmyIVaNc7Q
sei	0	0	0	0	0	so	müde	43	50	 None | Und morgen heißt es wieder, er sei so müde...
sind	0	0	0	0	0	so	süß	47	53	 None | RT @heroandpioneer: Caro und Anna sind so süß. 😭
ist	0	0	0	0	0	so	super	16	24	 None | Der ist so super. #lastrt
ist	0	0	0	0	0	ganz	weit	65	74	 526165919316586496 | @arborl  Die Mutter - meine Güte...sie ist ganz weit weggezogen. Was zu verstehen ist.
ist	0	0	0	0	ja	sehr	ausschlaggebend	52	75	 None | RT @NiallAnni: @germanfoooer stimmt der ist ja sehr ausschlaggebend💁😂😚
war	0	0	0	0	0	ziemlich	spontan	83	99	 526166301069574144 | @schnuchti ehrlich gesagt sag ich das auch sehr selten 😁 war ziemlich spontan 😂
ist	0	0	0	0	0	voll	okay	40	49	 526166672034762752 | @chloeful das ist voll okay, ich weiss das ungefähr nie. #shhh
ist	0	0	0	0	0	so	unfair	91	103	" None | Ich meine damit: ""Hab 3-4 Kilo zugenommem"" ""Seh ich heute scheisse aus"" ""Leben ist soooo unfair :(((("""
ist	0	0	0	0	halt	echt	schlimm	41	58	 526166186925772800 | @derdavorne es ist halt echt schlimm.
war	0	0	0	0	auch	richtig	gut	29	45	 None | #Suits Staffel 2 war auch richtig gut! Ich hoffe Staffel 3 &amp; 4 kommen auch bald auf @NetflixDE
ist	0	0	0	0	0	so	verlockend	60	73	 526165758133669888 | @3Nudelfuck3 @Antifanttt aber der ist so verlockend. http://t.co/ThFpdrT7sH
war	0	0	0	0	jetzt	sehr	gut	56	70	 526167390179319808 | @Jackyflatter Und dieser Satz war jetzt sehr gut formuliert.
bist	0	0	0	0	0	sehr	cute	47	56	 526167370633842688 | @schokokartoffel du bist sehr cute.
ist	0	0	0	0	0	so	geil	45	52	 None | Die Radio-Funktion von Tweetdeck ist so geil
ist	0	0	0	0	0	so	sorgenfrei	27	40	 None | das Leben hier ist so sorgenfrei
sind	0	0	0	0	0	so	augerastet	95	108	 None | RT @krissikorolev: @BibisBeauty @BibisBeautyGER Und danke für das süße Audio wird sind so augerastet❤
wäre	0	0	0	0	0	so	hammer	116	125	 526167157248622593 | @tyraphine @dream_traveler_  Kathi du muss auch mal ein TubeClash Charakter sein :D♥ Das wäre so hammer geil *.*
war	0	0	0	0	0	so	geil	37	44	 None | Ich lag auf dem Bett und war so geil der Dildo reichte mir einfach nicht...ich wollte auch Sperma in meinem Mund… http://t.co/8OT8kuiisX
sind	0	0	0	0	0	57367mal	freundlicher	85	106	 None | RT @LikeTray: Ich will wieder zurück in die USA 😪❤️🇺🇸 Die Menschen dort sind 57367mal freundlicher und offener als in Deutschland 🙏
ist	0	0	0	0	0	zu	fame	18	25	 None | Michi ist zu fame.
ist	0	0	0	0	0	wirklich	scheiße	28	44	 None | ooh nein :O Das ist wirklich scheiße.Meine reaktion wenn ich John aus sky sehe ist so ein gemisch aus weinen und freuen :D
war	0	0	0	0	gerade	so	lieb	16	31	 None | Das war gerade soo lieb von Jens 🙊
war	0	0	0	0	schon	lange	scharf	26	44	 None | Steffi4U: Ich war schon lange scharf auf unseren neuen Nachbarn, aber dann hab ich erfahren, dass er erst 17 war,… http://t.co/rYmUnw1RvA
sind	0	0	0	0	0	echt	gut	64	72	 None | RT @aufgebauscht: Die neuen Automaten der @RNVGmbH sind echt gut gelungen. Aber fahrscheinloser ÖPNV wäre mir lieber. #mannheim
ist	0	0	0	0	ganz	schön	klein	47	63	 526134877134278657 | @_micha @DerGebi Und ist ganz schön klein. Im Fernsehen wirkt das immer so rieeeeeesig.
bist	0	0	0	0	0	so	voll	49	56	 None | RT @Schweinegoerl: @schweinegurl Du bist so voll das kjute Menschlein, naw. ich für dich auch, wenn du wen brauchst.
war	0	0	0	0	0	echt	toll	51	60	 None | RT @MikeGedizzle: Das wars wohl Leute, war echt toll bis zu einem bestimmten Zeitpunkt mit euch  ;-) #dagibtswohlkeinnächstesMal
ist	0	0	0	0	0	so	scheiße	50	62	 None | RT @brck_nino: @AnimusOfficial  Outro ist sooo scheiße!! Ganz ehrlich.. Du kannst nicht Rappen alter! Scheiß 31er..!! #ironie #ILoveYouBrud…
bin	0	0	0	0	gerade	so	froh	21	35	 None | Aber ich bin gerade so froh diejenige zu sein, die menschen lieber fragt, was los ist, anstatt sauer zu sein.
ist	0	0	0	0	0	echt	schnieke	41	54	 None | Doch doch :3 Hyrule Warriors ist echt schnieke ♥ Macht ne Menge Spaß!
ist	0	0	0	0	0	so	wunderschön	24	38	 None | Deine Seele ist so wunderschön, dass ich dich einfach gerne in den Arm nehmen möchte und dir dann einen Kuss auf die Stirb geben will.
ist	0	0	0	0	wieder	hart	langweilig	16	38	 None | Mir ist wieder hart langweilig.
sind	0	0	0	schon	wieder	sehr	lang	62	84	 526167948055298048 | @insanelyiero ich auch meine Haare sind schon wieder sehr lang
sind	0	0	0	0	0	so	ugh	43	49	 None | RT @MeetMeInTheNowh: Menschen sind so ugh.
ist	0	0	0	0	glücklicherweise	so	vernünftig	43	73	 None | Der Kunde mit Hund aus der Bar ist glücklicherweise so vernünftig gewesen und liess sich nach Hause fahren...die Bar machte bereits dicht
ist	0	0	0	0	0	ganz	scheiße	40	52	 526164942647357441 | @applenws das ist ganz scheiße!
ist	0	0	0	0	nachts	irgendwie	langweilig	20	47	 None | Twitter ist nachts irgendwie langweilig...
wäre	0	0	0	0	0	so	cool	57	64	 526169264777347073 | @AnileinS @JanaBeautybird Das wäre so cool 😍❤ @sherryapic
Bin	0	0	mal	wieder	super	gut	gelaunt	12	40	 None | Bin mal wieder super gut gelaunt.
ist	0	0	0	0	0	so	toll	15	22	 None | Es ist so toll daheim zu sein
ist	0	0	0	0	jetzt	richtig	pissed	24	44	 None | Mein Bruder ist jetzt richtig pissed, weil ich den fünf Mal hintereinander bei Karaokeparty abgezogen habe, gg.
ist	0	0	0	0	so	unglaublich	toll	45	66	 None | RT @darkcookieside: Dieser Pulli ist sooo unglaublich toll 😍 #krnrmy #kranmerch #KC @KranCrafterTV @KranMerch ❤ http://t.co/ufjtK0eVxn
bin	0	0	0	0	0	nit	müde	30	38	 526169670005829633 | Ich bin nit müde
war	0	0	0	0	0	echt	gut	51	59	 526169664695828480 | @Gene_Roe Joko und Klaas war echt gut, hab viel gelacht xD Aber warum verzweifeln? ;A; was ist los?!
ist	0	0	0	0	0	ganz	klein	67	77	 526169647776038912 | @earlofSpeyer Besserwisser @quimdomenech ist ganz klein heute hahahahaha
bin	0	0	0	nun	einmal	nicht	perfekt	16	40	 None | Ich bin nun einmal nicht perfekt und will es auch gar nicht sein! Das Abnormale ist schön und das Normale für mich öde.
bin	0	0	0	0	0	nit	müde	44	52	 526169670005829633 | Ich mach spaß ich bin nit müde
ist	0	0	0	0	0	so	klar	22	29	 None | Die Nacht ist so klar dass ich ohne Brille die Cassiopeia erkennen kann. *_*
ist	0	0	ja	eigentlich	nicht	so	teuer	37	67	 None | Aber son Mac Lippenstift ist ja eigentlich nicht sooo teuer.
War	0	0	0	0	0	so	verwirrt	12	26	 None | War soooo verwirrt als die Autos auf der anderen Seite gefahren sind. Hab überhaupt nicht mehr dran gedacht :D
ist	0	0	0	0	0	wirklich	interessant	53	73	 None | Ev. Stadtkirchengemeinde Solingen... das ist wirklich interessant wollen. Sie mehr wissen Schauen? Look at http://t.co/MHl1tUt88W #WORSHIP
Ist	0	0	0	0	doch	irgendwie	schön	34	54	 526167501982674944 | @mmiedl Ist doch irgendwie schön.
war	0	0	0	0	0	sowieso	komplett	44	60	 526170153927835648 | @louisa_12345 Ich war sowieso komplett gespoilert, da ich bei der Aufzeichnung war ;-)
ist	0	0	0	0	0	so	high	45	52	 526165488540594177 | @Taddl xDD Der typ ist so high,er küsst in seinen träumen,den sky :3
ist	0	0	0	0	0	irgendwie	beängstigend	45	67	 None | Mein Interesse bezüglich Make-Up ist irgendwie beängstigend
warst	0	0	0	teilweise	noch	so	unschuldig	47	75	 526168480731910144 | @allesinschwarz du warst teilweise noch so unschuldig
ist	0	0	0	0	0	rap	kardeş	16	26	 None | das ist rap kardeş
ist	0	0	0	0	0	so	wunderschön	24	38	 None | Deine Seele ist so wunderschön, dass ich dich einfach gerne in den Arm nehmen möchte und dir dann einen Kuss auf die Stirn geben will.
warst	0	0	0	teilweise	noch	so	unschuldig	49	77	" None | ""@dieohnepizza: @allesinschwarz du warst teilweise noch so unschuldig"" ICH LACHE ZU SEHR"
bin	0	0	0	0	0	echt	paranoid	16	29	 None | Ich bin echt paranoid und hab' vor dem klitzekleinsten Geräusch Angst. Trotzdem liebe ich es nachts über dunkle Feldwege zu laufen.
bin	0	0	0	0	0	so	aufgeregt	25	38	 None | hallo  ich  bin  so  aufgeregt  das  ich  mit  dir  schreiben  kann
ist	0	0	0	gar	nicht	so	toll	95	113	" None | Ich habe ein @YouTube-Video positiv bewertet: http://t.co/5iKYNvQ7vr "" Bar Refaeli ist gar nicht soo toll "" - auf einem Event mit"
ist	0	0	0	0	0	am	besten	23	32	 None | AP Deutsch ist am besten #FennyLooksLikeATurtle http://t.co/n5jm40JAzc
war	0	0	0	0	0	voll	anstrengend	47	63	 526171938964910080 | @hateoneverybody Das war voll anstrengend ey.
seid	0	0	0	0	0	so	leise	27	35	 None | Aquagen - Ihr seid so leise: http://t.co/nWWWuIbpqz via @YouTube
ist	0	0	0	0	0	ohnehin	massiv	40	54	 526170459545808896 | @lhabc Schlaf ist ohnehin massiv überbewertet
sind	0	0	0	0	0	57367mal	freundlicher	85	106	 None | RT @LikeTray: Ich will wieder zurück in die USA 😪❤️🇺🇸 Die Menschen dort sind 57367mal freundlicher und offener als in Deutschland 🙏
ist	0	0	0	0	0	zu	spät	15	22	 None | Es ist zu spät haha
ist	0	0	0	0	0	so	arschkalt	30	42	 None | RT @LoLangohr: Es ist so Arschkalt draußen! An alle Frauen die lieber ihr lächeln zeigen, als ihren Ausschnitt: ihr seid die wahren.❤
ist	0	0	0	0	0	so	schön	16	43	 None | Das ist so schön. Unglaublich schön.  https://t.co/oSV6rIuXsX
Bin	0	0	0	grad	auch	sehr	froh	12	31	 None | Bin grad auch sehr froh, dass mein Hauptaccount nicht mehr so heißt.
BIST	0	0	0	0	0	so	behindert	41	53	 526172842199908353 | @DerDinoDa DU BIST SO BEHINDERT ABER GLEICHZEITIG AUCH KYUT, WAS VERLANGST DU DAFÜR IM GEGENZUG?
ist	0	0	0	0	0	natürlich	geil	21	35	 None | Saxophon ist natürlich GEIL...aber leider auch kein #supertalent , außerdem klingt der gerade so als würde er Schlangen beschwören eollen
war	0	0	0	0	0	sehr	romantisch	73	88	 None | ich hab mit @germanpsycho zu helene fischer getanzt &amp; es war sehr romantisch.
bin	0	0	0	0	schon	zu	alt	27	39	 None | Ich glaube ich bin schon zu alt für Moshpit, Circlepit und Wall of Death. Ich brauche nach dem Aufwachen sicher nen Pfleger.
War	0	0	0	0	0	so	klar	12	19	 None | War so klar, dass das mindestens ein Fav bekommt 8D
ist	0	0	0	0	0	extrem	praktisch	29	45	 None | Klassenvererbung ist extrem praktisch oh, you!
Bin	0	0	0	0	0	so	stolz	12	20	 None | Bin so stolz auf mich das Richtige getan zu haben.
bin	0	0	0	0	0	sehr	gespannt	74	87	 526172887280275456 | @RidgeradioUk @NoStrawberry4u @maenzchen ja ich bin sehr gespannt wie das schmeckt!! schön das du google translation nutzt!! ;)
ist	0	0	0	0	0	natürlich	geil	21	35	 None | Saxophon ist natürlich GEIL...aber leider auch kein #supertalent , außerdem klingt der gerade so als würde er Schlangen beschwören wollen
ist	0	0	0	0	0	so	schade	15	24	 None | Es ist so schade, wie es ist.
ist	0	0	0	0	0	echt	praktisch	25	39	 None | Online Duden ist echt praktisch °3° gefasst beschreibt es ganz gut, Er ist kühl und Gefasst jap das ist es
ist	0	0	0	0	0	zu	kurz	19	69	 None | Wir denken zu viel und tun zu wenig.... das leben ist zu kurz, also mach was draus!
ist	0	0	0	ja	nicht	sehr	gesprächig	18	42	 None | Ennis ist ja nicht sehr gesprächig #BrokebackMountain
war	0	0	0	0	mal	voll	gelenkig	16	33	 None | Ich war mal voll gelenkig, da haben immer alle gestaunt, aber jetzt ist das nicht mehr so.
ist	0	0	0	0	immer	so	toll	74	87	" None | Freu mich so auf das nächste video von @Taddl seine Begrüßung ist immer so toll. So lieb und nett. ""Hey, ihr Kumpels"" #Kumpel #KeineNudel"
wäre	0	0	0	0	auch	irgendwie	cool	51	70	 526173212397568000 | @BlueTJLP Ne WG gründen wäre auch irgendwie cool!
bin	0	0	0	0	schon	so	aufgeregt	16	34	 None | Ich bin schon so aufgeregt! #Zeitumstellung
bin	0	0	0	0	noch	völlig	platt	16	33	 None | Ich bin noch völlig platt von KirKiraHikaru #Feels
bin	0	0	0	0	schon	so	aufgeregt	33	51	 None | RT @Shrimpsmann: Ich bin schon so aufgeregt! #Zeitumstellung
ist	0	0	0	0	0	ziemlich	praktisch	32	50	 None | So ein Limitaccount ist ziemlich praktisch :D
war	0	0	0	0	0	so	geil	37	44	 None | Ich lag auf dem Bett und war so geil der Dildo reichte mir einfach nicht...ich wollte auch Sperma in meinem Mund… http://t.co/0UZlo1Vt7r
ist	0	0	0	0	doch	ganz	einfach	32	49	 None | Zeitumstelleung Wie ist doch ganz einfach.  Merke:  Im Frühjahr, wenn es wieder wärmer wird, dehnt sich die Zeit... http://t.co/QxfQRG0fh3
bin	0	0	0	0	schon	so	aufgeregt	33	51	 None | RT @Shrimpsmann: Ich bin schon so aufgeregt! #Zeitumstellung
bin	0	0	0	0	jetzt	komplett	voll	64	83	 526174277167742976 | @Gedankenmel haha das scheiße also ch bin jetzt komplett voll hoffe meine Jungs passen auf mich auf
Sei	0	0	0	0	nicht	so	gierig	36	51	 526174856065593344 | @Wolkisan Sei nicht so gierig!
bin	0	0	0	0	0	sehr	müde	16	25	 None | Ich bin sehr müde aber ich muss morgen früh aufstehen… Gute Nacht.
ist	0	0	0	0	0	echt	schlimm	51	63	 526174571108794370 | @darksideofsunn ohja das ist echt schlimm das gleiche problem habe ich auch viel glück weiterhin 😪
ist	0	0	0	0	0	so	bitter	84	93	 None | Ich habe ein @YouTube-Video positiv bewertet: http://t.co/0gUGv5UYxZ Es ist so bitter... || Wie man es nicht machen sollte! || BO2 -
bin	0	0	0	0	irgendwie	verdammt	schüchtern	16	45	 None | Ich bin irgendwie verdammt schüchtern, wenn ich mit Internetmenschen auf WhatsApp schreibe. Irgendwann taue ich dann auf, aber das dauert.
bin	0	0	0	0	so	verdammt	gut	40	55	 526172739632398336 | @Larixine Ich bin so verdammt gut im Sterben.
bin	0	0	0	0	0	völlig	klar	46	57	 None | Hab' versucht, mich zu betrinken, bin völlig klar. Wollte dich aus meinem Blut spülen, es gelingt mir nicht, seh' immer dein Gesicht.
ist	0	0	0	gar	nicht	so	schlecht	33	54	 None | So ne Zeitumstellung ist gar nicht so schlecht. Evtl. komme sogar ich heute mal früher ins Bett 😅 !
ist	0	0	0	0	0	voll	cute	45	54	 526175517037580288 | @IchbinJuliana Das ist voll cute *-* :D
bin	0	0	0	0	0	so	geil	16	23	 None | Ich bin so geil!
bin	0	0	0	0	schon	so	aufgeregt	33	51	 None | RT @Shrimpsmann: Ich bin schon so aufgeregt! #Zeitumstellung
ist	0	0	0	0	mal	echt	genial	27	42	 None | Das neue Album ist mal echt genial: 11 Jährigen: Don't give a fuck  tomorrow.
war	0	0	0	0	0	so	geil	33	40	 None | ich-will-sperma: ich war so geil, das ich es mir einfach auf der wiese besorgt habe, im hintergrund hört man noch… http://t.co/z6mfGh5ZiC
ist	0	0	0	0	0	extrem	schwer	41	54	 None | Gladbach-Trainer Favre - „Es ist extrem schwer gegen Guardiola“ http://t.co/7uksdJmkhY OR http://t.co/4mLa9NDuxh #news #openfollow
Is	0	0	0	schon	irgendwie	ganz	cool	11	36	 None | Is schon irgendwie ganz cool um fast 3 Uhr (oder wat ever wat) Morgens gute Laune zu haben
ist	0	0	0	0	0	total	kindisch	15	29	 None | Es ist total kindisch zu warten, ich weiß eh.
bin	0	0	0	0	0	so	blau	16	33	 None | Ich bin sooooooooooo blau und es ist erst 2:57. auf der Reeperbahn nachts um 3.
ist	0	0	0	0	0	viel	älter	56	66	 526175065617223680 | @MsBates1909 der @manulud2011 ist viel älter als ich
ist	0	0	0	0	nicht	so	geil	55	68	 None | Eine Stunde von der Bahn nach Hause laufen ist nicht so geil.. immerhin wird mir die Stunde gleich wieder geschenkt.
bin	0	0	0	0	noch	völlig	platt	16	33	 None | Ich bin noch völlig platt von KiraKiraHikaru #Feels
ist	0	0	0	0	0	extrem	scheiße	22	36	 None | Der Anime ist extrem scheiße und langweilig. Alter. #SAO2
sei	0	0	0	bitte	nicht	so	dumm	46	65	" None | meine mutter hat mit diesem ""erna sei bitte nicht so dumm"" sehr wohl recht"
ist	0	0	0	0	0	so	genial	23	32	" None | ""Sherlock"" ist so genial, dass mir übel wird. Ich weiß nicht was ich sagen soll.  Diese Perfektion! Ohgott, ich möchte weinen."
